^C:\USERS\TEMP\DESKTOP\DLIVINGSTONE-RT3D-LAB-2-E9A28B654B10\SDL GL TRIANGLE\DEBUG\MAIN.OBJ|C:\USERS\TEMP\DESKTOP\DLIVINGSTONE-RT3D-LAB-2-E9A28B654B10\SDL GL TRIANGLE\DEBUG\RT3D.OBJ|C:\USERS\TEMP\DESKTOP\DLIVINGSTONE-RT3D-LAB-2-E9A28B654B10\SDL GL TRIANGLE\DEBUG\SDL GL TRIANGLE.EXE.EMBED.MANIFEST.RES
C:\USERS\TEMP\DESKTOP\DLIVINGSTONE-RT3D-LAB-2-E9A28B654B10\DEBUG\SDL GL TRIANGLE.ILK
C:\USERS\TEMP\DESKTOP\DLIVINGSTONE-RT3D-LAB-2-E9A28B654B10\DEBUG\SDL GL TRIANGLE.EXE
C:\USERS\TEMP\DESKTOP\DLIVINGSTONE-RT3D-LAB-2-E9A28B654B10\SDL GL TRIANGLE\DEBUG\SDL GL TRIANGLE.EXE.INTERMEDIATE.MANIFEST
C:\USERS\TEMP\DESKTOP\DLIVINGSTONE-RT3D-LAB-2-E9A28B654B10\DEBUG\SDL GL TRIANGLE.PDB
^E:\SHIELDS' SHITE\SDL GL TRIANGLE\DEBUG\MAIN.OBJ|E:\SHIELDS' SHITE\SDL GL TRIANGLE\DEBUG\RT3D.OBJ|E:\SHIELDS' SHITE\SDL GL TRIANGLE\DEBUG\SDL GL TRIANGLE.EXE.EMBED.MANIFEST.RES
E:\SHIELDS' SHITE\DEBUG\SDL GL TRIANGLE.ILK
E:\SHIELDS' SHITE\DEBUG\SDL GL TRIANGLE.EXE
E:\SHIELDS' SHITE\SDL GL TRIANGLE\DEBUG\SDL GL TRIANGLE.EXE.INTERMEDIATE.MANIFEST
E:\SHIELDS' SHITE\DEBUG\SDL GL TRIANGLE.PDB
^H:\SHIELDS' SHITE\SDL GL TRIANGLE\DEBUG\MAIN.OBJ|H:\SHIELDS' SHITE\SDL GL TRIANGLE\DEBUG\RT3D.OBJ|H:\SHIELDS' SHITE\SDL GL TRIANGLE\DEBUG\SDL GL TRIANGLE.EXE.EMBED.MANIFEST.RES
H:\SHIELDS' SHITE\DEBUG\SDL GL TRIANGLE.ILK
H:\SHIELDS' SHITE\DEBUG\SDL GL TRIANGLE.EXE
H:\SHIELDS' SHITE\SDL GL TRIANGLE\DEBUG\SDL GL TRIANGLE.EXE.INTERMEDIATE.MANIFEST
H:\SHIELDS' SHITE\DEBUG\SDL GL TRIANGLE.PDB
^C:\USERS\SHIELDS\DESKTOP\CALUM'S STUFF\UNI\SHIELDS' SHITE\SDL GL TRIANGLE\DEBUG\MAIN.OBJ|C:\USERS\SHIELDS\DESKTOP\CALUM'S STUFF\UNI\SHIELDS' SHITE\SDL GL TRIANGLE\DEBUG\RT3D.OBJ|C:\USERS\SHIELDS\DESKTOP\CALUM'S STUFF\UNI\SHIELDS' SHITE\SDL GL TRIANGLE\DEBUG\SDL GL TRIANGLE.EXE.EMBED.MANIFEST.RES
C:\USERS\SHIELDS\DESKTOP\CALUM'S STUFF\UNI\SHIELDS' SHITE\DEBUG\SDL GL TRIANGLE.ILK
C:\USERS\SHIELDS\DESKTOP\CALUM'S STUFF\UNI\SHIELDS' SHITE\DEBUG\SDL GL TRIANGLE.EXE
C:\USERS\SHIELDS\DESKTOP\CALUM'S STUFF\UNI\SHIELDS' SHITE\SDL GL TRIANGLE\DEBUG\SDL GL TRIANGLE.EXE.INTERMEDIATE.MANIFEST
C:\USERS\SHIELDS\DESKTOP\CALUM'S STUFF\UNI\SHIELDS' SHITE\DEBUG\SDL GL TRIANGLE.PDB
^C:\USERS\SHIELDS\DESKTOP\SOLAR SYSTEM\SDL GL TRIANGLE\DEBUG\MAIN.OBJ|C:\USERS\SHIELDS\DESKTOP\SOLAR SYSTEM\SDL GL TRIANGLE\DEBUG\RT3D.OBJ|C:\USERS\SHIELDS\DESKTOP\SOLAR SYSTEM\SDL GL TRIANGLE\DEBUG\SDL GL TRIANGLE.EXE.EMBED.MANIFEST.RES
C:\USERS\SHIELDS\DESKTOP\SOLAR SYSTEM\DEBUG\SDL GL TRIANGLE.ILK
C:\USERS\SHIELDS\DESKTOP\SOLAR SYSTEM\DEBUG\SDL GL TRIANGLE.EXE
C:\USERS\SHIELDS\DESKTOP\SOLAR SYSTEM\SDL GL TRIANGLE\DEBUG\SDL GL TRIANGLE.EXE.INTERMEDIATE.MANIFEST
C:\USERS\SHIELDS\DESKTOP\SOLAR SYSTEM\DEBUG\SDL GL TRIANGLE.PDB
^C:\USERS\SHIELDS\DESKTOP\MOVING CAMERAS\SDL GL TRIANGLE\DEBUG\MAIN.OBJ|C:\USERS\SHIELDS\DESKTOP\MOVING CAMERAS\SDL GL TRIANGLE\DEBUG\RT3D.OBJ|C:\USERS\SHIELDS\DESKTOP\MOVING CAMERAS\SDL GL TRIANGLE\DEBUG\SDL GL TRIANGLE.EXE.EMBED.MANIFEST.RES
C:\USERS\SHIELDS\DESKTOP\MOVING CAMERAS\DEBUG\SDL GL TRIANGLE.ILK
C:\USERS\SHIELDS\DESKTOP\MOVING CAMERAS\DEBUG\SDL GL TRIANGLE.EXE
C:\USERS\SHIELDS\DESKTOP\MOVING CAMERAS\SDL GL TRIANGLE\DEBUG\SDL GL TRIANGLE.EXE.INTERMEDIATE.MANIFEST
C:\USERS\SHIELDS\DESKTOP\MOVING CAMERAS\DEBUG\SDL GL TRIANGLE.PDB
^C:\USERS\SHIELDS\DESKTOP\CALUM'S STUFF\UNI\LAB EXERCISES\RT3D\MOVING CAMERAS\SDL GL TRIANGLE\DEBUG\CAMERA.OBJ|C:\USERS\SHIELDS\DESKTOP\CALUM'S STUFF\UNI\LAB EXERCISES\RT3D\MOVING CAMERAS\SDL GL TRIANGLE\DEBUG\MAIN.OBJ|C:\USERS\SHIELDS\DESKTOP\CALUM'S STUFF\UNI\LAB EXERCISES\RT3D\MOVING CAMERAS\SDL GL TRIANGLE\DEBUG\RT3D.OBJ|C:\USERS\SHIELDS\DESKTOP\CALUM'S STUFF\UNI\LAB EXERCISES\RT3D\MOVING CAMERAS\SDL GL TRIANGLE\DEBUG\SDL GL TRIANGLE.EXE.EMBED.MANIFEST.RES
C:\USERS\SHIELDS\DESKTOP\CALUM'S STUFF\UNI\LAB EXERCISES\RT3D\MOVING CAMERAS\DEBUG\SDL GL TRIANGLE.ILK
C:\USERS\SHIELDS\DESKTOP\CALUM'S STUFF\UNI\LAB EXERCISES\RT3D\MOVING CAMERAS\DEBUG\SDL GL TRIANGLE.EXE
C:\USERS\SHIELDS\DESKTOP\CALUM'S STUFF\UNI\LAB EXERCISES\RT3D\MOVING CAMERAS\SDL GL TRIANGLE\DEBUG\SDL GL TRIANGLE.EXE.INTERMEDIATE.MANIFEST
C:\USERS\SHIELDS\DESKTOP\CALUM'S STUFF\UNI\LAB EXERCISES\RT3D\MOVING CAMERAS\DEBUG\SDL GL TRIANGLE.PDB
^C:\USERS\SHIELDS\DESKTOP\CALUM'S STUFF\UNI\LAB EXERCISES\RT3D\RT3D ASSIGNMENT\SDL GL TRIANGLE\DEBUG\CAMERA.OBJ|C:\USERS\SHIELDS\DESKTOP\CALUM'S STUFF\UNI\LAB EXERCISES\RT3D\RT3D ASSIGNMENT\SDL GL TRIANGLE\DEBUG\LOADTEXTURE.OBJ|C:\USERS\SHIELDS\DESKTOP\CALUM'S STUFF\UNI\LAB EXERCISES\RT3D\RT3D ASSIGNMENT\SDL GL TRIANGLE\DEBUG\MAIN.OBJ|C:\USERS\SHIELDS\DESKTOP\CALUM'S STUFF\UNI\LAB EXERCISES\RT3D\RT3D ASSIGNMENT\SDL GL TRIANGLE\DEBUG\MD2MODEL.OBJ|C:\USERS\SHIELDS\DESKTOP\CALUM'S STUFF\UNI\LAB EXERCISES\RT3D\RT3D ASSIGNMENT\SDL GL TRIANGLE\DEBUG\RT3D ASSIGNMENT.EXE.EMBED.MANIFEST.RES|C:\USERS\SHIELDS\DESKTOP\CALUM'S STUFF\UNI\LAB EXERCISES\RT3D\RT3D ASSIGNMENT\SDL GL TRIANGLE\DEBUG\RT3D.OBJ|C:\USERS\SHIELDS\DESKTOP\CALUM'S STUFF\UNI\LAB EXERCISES\RT3D\RT3D ASSIGNMENT\SDL GL TRIANGLE\DEBUG\RT3DOBJLOADER.OBJ
C:\USERS\SHIELDS\DESKTOP\CALUM'S STUFF\UNI\LAB EXERCISES\RT3D\RT3D ASSIGNMENT\DEBUG\RT3D ASSIGNMENT.ILK
C:\USERS\SHIELDS\DESKTOP\CALUM'S STUFF\UNI\LAB EXERCISES\RT3D\RT3D ASSIGNMENT\DEBUG\RT3D ASSIGNMENT.EXE
C:\USERS\SHIELDS\DESKTOP\CALUM'S STUFF\UNI\LAB EXERCISES\RT3D\RT3D ASSIGNMENT\SDL GL TRIANGLE\DEBUG\RT3D ASSIGNMENT.EXE.INTERMEDIATE.MANIFEST
C:\USERS\SHIELDS\DESKTOP\CALUM'S STUFF\UNI\LAB EXERCISES\RT3D\RT3D ASSIGNMENT\DEBUG\RT3D ASSIGNMENT.PDB
^E:\RT3D\RT3D ASSIGNMENT\SDL GL TRIANGLE\DEBUG\CAMERA.OBJ|E:\RT3D\RT3D ASSIGNMENT\SDL GL TRIANGLE\DEBUG\LOADOBJECT.OBJ|E:\RT3D\RT3D ASSIGNMENT\SDL GL TRIANGLE\DEBUG\LOADTEXTURE.OBJ|E:\RT3D\RT3D ASSIGNMENT\SDL GL TRIANGLE\DEBUG\MAIN.OBJ|E:\RT3D\RT3D ASSIGNMENT\SDL GL TRIANGLE\DEBUG\MD2MODEL.OBJ|E:\RT3D\RT3D ASSIGNMENT\SDL GL TRIANGLE\DEBUG\RT3D ASSIGNMENT.EXE.EMBED.MANIFEST.RES|E:\RT3D\RT3D ASSIGNMENT\SDL GL TRIANGLE\DEBUG\RT3D.OBJ|E:\RT3D\RT3D ASSIGNMENT\SDL GL TRIANGLE\DEBUG\RT3DOBJLOADER.OBJ
E:\RT3D\RT3D ASSIGNMENT\DEBUG\RT3D ASSIGNMENT.ILK
E:\RT3D\RT3D ASSIGNMENT\DEBUG\RT3D ASSIGNMENT.EXE
E:\RT3D\RT3D ASSIGNMENT\SDL GL TRIANGLE\DEBUG\RT3D ASSIGNMENT.EXE.INTERMEDIATE.MANIFEST
E:\RT3D\RT3D ASSIGNMENT\DEBUG\RT3D ASSIGNMENT.PDB
^E:\RT3D\RT3D_ASSIGNMENT\SDL GL TRIANGLE\DEBUG\CAMERA.OBJ|E:\RT3D\RT3D_ASSIGNMENT\SDL GL TRIANGLE\DEBUG\DRAWOBJECT.OBJ|E:\RT3D\RT3D_ASSIGNMENT\SDL GL TRIANGLE\DEBUG\LABEL.OBJ|E:\RT3D\RT3D_ASSIGNMENT\SDL GL TRIANGLE\DEBUG\LIGHT.OBJ|E:\RT3D\RT3D_ASSIGNMENT\SDL GL TRIANGLE\DEBUG\LOADOBJECT.OBJ|E:\RT3D\RT3D_ASSIGNMENT\SDL GL TRIANGLE\DEBUG\LOADTEXTURE.OBJ|E:\RT3D\RT3D_ASSIGNMENT\SDL GL TRIANGLE\DEBUG\MAIN.OBJ|E:\RT3D\RT3D_ASSIGNMENT\SDL GL TRIANGLE\DEBUG\MD2MODEL.OBJ|E:\RT3D\RT3D_ASSIGNMENT\SDL GL TRIANGLE\DEBUG\RT3D ASSIGNMENT.EXE.EMBED.MANIFEST.RES|E:\RT3D\RT3D_ASSIGNMENT\SDL GL TRIANGLE\DEBUG\RT3D.OBJ|E:\RT3D\RT3D_ASSIGNMENT\SDL GL TRIANGLE\DEBUG\RT3DOBJLOADER.OBJ
E:\RT3D\RT3D_ASSIGNMENT\DEBUG\RT3D ASSIGNMENT.ILK
E:\RT3D\RT3D_ASSIGNMENT\DEBUG\RT3D ASSIGNMENT.EXE
E:\RT3D\RT3D_ASSIGNMENT\SDL GL TRIANGLE\DEBUG\RT3D ASSIGNMENT.EXE.INTERMEDIATE.MANIFEST
E:\RT3D\RT3D_ASSIGNMENT\DEBUG\RT3D ASSIGNMENT.PDB
^H:\RT3D\RT3D_ASSIGNMENT\SDL GL TRIANGLE\DEBUG\CAMERA.OBJ|H:\RT3D\RT3D_ASSIGNMENT\SDL GL TRIANGLE\DEBUG\DRAWOBJECT.OBJ|H:\RT3D\RT3D_ASSIGNMENT\SDL GL TRIANGLE\DEBUG\LABEL.OBJ|H:\RT3D\RT3D_ASSIGNMENT\SDL GL TRIANGLE\DEBUG\LIGHT.OBJ|H:\RT3D\RT3D_ASSIGNMENT\SDL GL TRIANGLE\DEBUG\LOADOBJECT.OBJ|H:\RT3D\RT3D_ASSIGNMENT\SDL GL TRIANGLE\DEBUG\LOADTEXTURE.OBJ|H:\RT3D\RT3D_ASSIGNMENT\SDL GL TRIANGLE\DEBUG\MAIN.OBJ|H:\RT3D\RT3D_ASSIGNMENT\SDL GL TRIANGLE\DEBUG\MD2MODEL.OBJ|H:\RT3D\RT3D_ASSIGNMENT\SDL GL TRIANGLE\DEBUG\RT3D ASSIGNMENT.EXE.EMBED.MANIFEST.RES|H:\RT3D\RT3D_ASSIGNMENT\SDL GL TRIANGLE\DEBUG\RT3D.OBJ|H:\RT3D\RT3D_ASSIGNMENT\SDL GL TRIANGLE\DEBUG\RT3DOBJLOADER.OBJ
H:\RT3D\RT3D_ASSIGNMENT\DEBUG\RT3D ASSIGNMENT.ILK
H:\RT3D\RT3D_ASSIGNMENT\DEBUG\RT3D ASSIGNMENT.EXE
H:\RT3D\RT3D_ASSIGNMENT\SDL GL TRIANGLE\DEBUG\RT3D ASSIGNMENT.EXE.INTERMEDIATE.MANIFEST
H:\RT3D\RT3D_ASSIGNMENT\DEBUG\RT3D ASSIGNMENT.PDB
^C:\USERS\SHIELDS\REPOS\RT3D\RT3D_ASSIGNMENT\SDL GL TRIANGLE\DEBUG\CAMERA.OBJ|C:\USERS\SHIELDS\REPOS\RT3D\RT3D_ASSIGNMENT\SDL GL TRIANGLE\DEBUG\DRAWOBJECT.OBJ|C:\USERS\SHIELDS\REPOS\RT3D\RT3D_ASSIGNMENT\SDL GL TRIANGLE\DEBUG\LABEL.OBJ|C:\USERS\SHIELDS\REPOS\RT3D\RT3D_ASSIGNMENT\SDL GL TRIANGLE\DEBUG\LIGHT.OBJ|C:\USERS\SHIELDS\REPOS\RT3D\RT3D_ASSIGNMENT\SDL GL TRIANGLE\DEBUG\LOADOBJECT.OBJ|C:\USERS\SHIELDS\REPOS\RT3D\RT3D_ASSIGNMENT\SDL GL TRIANGLE\DEBUG\LOADTEXTURE.OBJ|C:\USERS\SHIELDS\REPOS\RT3D\RT3D_ASSIGNMENT\SDL GL TRIANGLE\DEBUG\MAIN.OBJ|C:\USERS\SHIELDS\REPOS\RT3D\RT3D_ASSIGNMENT\SDL GL TRIANGLE\DEBUG\MD2MODEL.OBJ|C:\USERS\SHIELDS\REPOS\RT3D\RT3D_ASSIGNMENT\SDL GL TRIANGLE\DEBUG\RT3D ASSIGNMENT.EXE.EMBED.MANIFEST.RES|C:\USERS\SHIELDS\REPOS\RT3D\RT3D_ASSIGNMENT\SDL GL TRIANGLE\DEBUG\RT3D.OBJ|C:\USERS\SHIELDS\REPOS\RT3D\RT3D_ASSIGNMENT\SDL GL TRIANGLE\DEBUG\RT3DOBJLOADER.OBJ
C:\USERS\SHIELDS\REPOS\RT3D\RT3D_ASSIGNMENT\DEBUG\RT3D ASSIGNMENT.ILK
C:\USERS\SHIELDS\REPOS\RT3D\RT3D_ASSIGNMENT\DEBUG\RT3D ASSIGNMENT.EXE
C:\USERS\SHIELDS\REPOS\RT3D\RT3D_ASSIGNMENT\SDL GL TRIANGLE\DEBUG\RT3D ASSIGNMENT.EXE.INTERMEDIATE.MANIFEST
C:\USERS\SHIELDS\REPOS\RT3D\RT3D_ASSIGNMENT\DEBUG\RT3D ASSIGNMENT.PDB
