^C:\USERS\TEMP\DESKTOP\DLIVINGSTONE-RT3D-LAB-2-E9A28B654B10\SDL GL TRIANGLE\DEBUG\MAIN.OBJ|C:\USERS\TEMP\DESKTOP\DLIVINGSTONE-RT3D-LAB-2-E9A28B654B10\SDL GL TRIANGLE\DEBUG\RT3D.OBJ|C:\USERS\TEMP\DESKTOP\DLIVINGSTONE-RT3D-LAB-2-E9A28B654B10\SDL GL TRIANGLE\DEBUG\SDL GL TRIANGLE.EXE.EMBED.MANIFEST.RES
/ERRORREPORT:PROMPT /OUT:"C:\Users\TEMP\Desktop\dlivingstone-rt3d-lab-2-e9a28b654b10\Debug\SDL GL Triangle.exe" /INCREMENTAL /NOLOGO opengl32.lib glew32.lib SDL.lib SDLmain.lib kernel32.lib user32.lib gdi32.lib winspool.lib comdlg32.lib advapi32.lib shell32.lib ole32.lib oleaut32.lib uuid.lib odbc32.lib odbccp32.lib kernel32.lib user32.lib gdi32.lib winspool.lib comdlg32.lib advapi32.lib shell32.lib ole32.lib oleaut32.lib uuid.lib odbc32.lib odbccp32.lib /MANIFEST /ManifestFile:"Debug\SDL GL Triangle.exe.intermediate.manifest" /MANIFESTUAC:"level='asInvoker' uiAccess='false'" /DEBUG /PDB:"C:\Users\TEMP\Desktop\dlivingstone-rt3d-lab-2-e9a28b654b10\Debug\SDL GL Triangle.pdb" /SUBSYSTEM:WINDOWS /TLBID:1 /DYNAMICBASE /NXCOMPAT /IMPLIB:"C:\Users\TEMP\Desktop\dlivingstone-rt3d-lab-2-e9a28b654b10\Debug\SDL GL Triangle.lib" /MACHINE:X86 "Debug\SDL GL Triangle.exe.embed.manifest.res"
Debug\main.obj
Debug\rt3d.obj
^E:\SHIELDS' SHITE\SDL GL TRIANGLE\DEBUG\MAIN.OBJ|E:\SHIELDS' SHITE\SDL GL TRIANGLE\DEBUG\RT3D.OBJ|E:\SHIELDS' SHITE\SDL GL TRIANGLE\DEBUG\SDL GL TRIANGLE.EXE.EMBED.MANIFEST.RES
/ERRORREPORT:PROMPT /OUT:"E:\Shields' shite\Debug\SDL GL Triangle.exe" /INCREMENTAL /NOLOGO opengl32.lib glew32.lib SDL.lib SDLmain.lib kernel32.lib user32.lib gdi32.lib winspool.lib comdlg32.lib advapi32.lib shell32.lib ole32.lib oleaut32.lib uuid.lib odbc32.lib odbccp32.lib kernel32.lib user32.lib gdi32.lib winspool.lib comdlg32.lib advapi32.lib shell32.lib ole32.lib oleaut32.lib uuid.lib odbc32.lib odbccp32.lib /MANIFEST /ManifestFile:"Debug\SDL GL Triangle.exe.intermediate.manifest" /MANIFESTUAC:"level='asInvoker' uiAccess='false'" /DEBUG /PDB:"E:\Shields' shite\Debug\SDL GL Triangle.pdb" /SUBSYSTEM:WINDOWS /TLBID:1 /DYNAMICBASE /NXCOMPAT /IMPLIB:"E:\Shields' shite\Debug\SDL GL Triangle.lib" /MACHINE:X86 "Debug\SDL GL Triangle.exe.embed.manifest.res"
Debug\main.obj
Debug\rt3d.obj
^H:\SHIELDS' SHITE\SDL GL TRIANGLE\DEBUG\MAIN.OBJ|H:\SHIELDS' SHITE\SDL GL TRIANGLE\DEBUG\RT3D.OBJ|H:\SHIELDS' SHITE\SDL GL TRIANGLE\DEBUG\SDL GL TRIANGLE.EXE.EMBED.MANIFEST.RES
/ERRORREPORT:PROMPT /OUT:"H:\Shields' shite\Debug\SDL GL Triangle.exe" /INCREMENTAL /NOLOGO opengl32.lib glew32.lib SDL.lib SDLmain.lib kernel32.lib user32.lib gdi32.lib winspool.lib comdlg32.lib advapi32.lib shell32.lib ole32.lib oleaut32.lib uuid.lib odbc32.lib odbccp32.lib kernel32.lib user32.lib gdi32.lib winspool.lib comdlg32.lib advapi32.lib shell32.lib ole32.lib oleaut32.lib uuid.lib odbc32.lib odbccp32.lib /MANIFEST /ManifestFile:"Debug\SDL GL Triangle.exe.intermediate.manifest" /MANIFESTUAC:"level='asInvoker' uiAccess='false'" /DEBUG /PDB:"H:\Shields' shite\Debug\SDL GL Triangle.pdb" /SUBSYSTEM:WINDOWS /TLBID:1 /DYNAMICBASE /NXCOMPAT /IMPLIB:"H:\Shields' shite\Debug\SDL GL Triangle.lib" /MACHINE:X86 "Debug\SDL GL Triangle.exe.embed.manifest.res"
Debug\main.obj
Debug\rt3d.obj
^C:\USERS\SHIELDS\DESKTOP\CALUM'S STUFF\UNI\SHIELDS' SHITE\SDL GL TRIANGLE\DEBUG\MAIN.OBJ|C:\USERS\SHIELDS\DESKTOP\CALUM'S STUFF\UNI\SHIELDS' SHITE\SDL GL TRIANGLE\DEBUG\RT3D.OBJ|C:\USERS\SHIELDS\DESKTOP\CALUM'S STUFF\UNI\SHIELDS' SHITE\SDL GL TRIANGLE\DEBUG\SDL GL TRIANGLE.EXE.EMBED.MANIFEST.RES
/ERRORREPORT:PROMPT /OUT:"C:\Users\Shields\Desktop\CALUM'S STUFF\Uni\Shields' shite\Debug\SDL GL Triangle.exe" /INCREMENTAL /NOLOGO opengl32.lib glew32.lib SDL.lib SDLmain.lib kernel32.lib user32.lib gdi32.lib winspool.lib comdlg32.lib advapi32.lib shell32.lib ole32.lib oleaut32.lib uuid.lib odbc32.lib odbccp32.lib kernel32.lib user32.lib gdi32.lib winspool.lib comdlg32.lib advapi32.lib shell32.lib ole32.lib oleaut32.lib uuid.lib odbc32.lib odbccp32.lib /MANIFEST /ManifestFile:"Debug\SDL GL Triangle.exe.intermediate.manifest" /MANIFESTUAC:"level='asInvoker' uiAccess='false'" /DEBUG /PDB:"C:\Users\Shields\Desktop\CALUM'S STUFF\Uni\Shields' shite\Debug\SDL GL Triangle.pdb" /SUBSYSTEM:WINDOWS /TLBID:1 /DYNAMICBASE /NXCOMPAT /IMPLIB:"C:\Users\Shields\Desktop\CALUM'S STUFF\Uni\Shields' shite\Debug\SDL GL Triangle.lib" /MACHINE:X86 "Debug\SDL GL Triangle.exe.embed.manifest.res"
Debug\main.obj
Debug\rt3d.obj
^C:\USERS\SHIELDS\DESKTOP\SOLAR SYSTEM\SDL GL TRIANGLE\DEBUG\MAIN.OBJ|C:\USERS\SHIELDS\DESKTOP\SOLAR SYSTEM\SDL GL TRIANGLE\DEBUG\RT3D.OBJ|C:\USERS\SHIELDS\DESKTOP\SOLAR SYSTEM\SDL GL TRIANGLE\DEBUG\SDL GL TRIANGLE.EXE.EMBED.MANIFEST.RES
/ERRORREPORT:PROMPT /OUT:"C:\Users\Shields\Desktop\Solar System\Debug\SDL GL Triangle.exe" /INCREMENTAL /NOLOGO opengl32.lib glew32.lib SDL.lib SDLmain.lib kernel32.lib user32.lib gdi32.lib winspool.lib comdlg32.lib advapi32.lib shell32.lib ole32.lib oleaut32.lib uuid.lib odbc32.lib odbccp32.lib kernel32.lib user32.lib gdi32.lib winspool.lib comdlg32.lib advapi32.lib shell32.lib ole32.lib oleaut32.lib uuid.lib odbc32.lib odbccp32.lib /MANIFEST /ManifestFile:"Debug\SDL GL Triangle.exe.intermediate.manifest" /MANIFESTUAC:"level='asInvoker' uiAccess='false'" /DEBUG /PDB:"C:\Users\Shields\Desktop\Solar System\Debug\SDL GL Triangle.pdb" /SUBSYSTEM:WINDOWS /TLBID:1 /DYNAMICBASE /NXCOMPAT /IMPLIB:"C:\Users\Shields\Desktop\Solar System\Debug\SDL GL Triangle.lib" /MACHINE:X86 "Debug\SDL GL Triangle.exe.embed.manifest.res"
Debug\main.obj
Debug\rt3d.obj
^C:\USERS\SHIELDS\DESKTOP\MOVING CAMERAS\SDL GL TRIANGLE\DEBUG\MAIN.OBJ|C:\USERS\SHIELDS\DESKTOP\MOVING CAMERAS\SDL GL TRIANGLE\DEBUG\RT3D.OBJ|C:\USERS\SHIELDS\DESKTOP\MOVING CAMERAS\SDL GL TRIANGLE\DEBUG\SDL GL TRIANGLE.EXE.EMBED.MANIFEST.RES
/ERRORREPORT:PROMPT /OUT:"C:\Users\Shields\Desktop\Moving Cameras\Debug\SDL GL Triangle.exe" /INCREMENTAL /NOLOGO opengl32.lib glew32.lib SDL.lib SDLmain.lib kernel32.lib user32.lib gdi32.lib winspool.lib comdlg32.lib advapi32.lib shell32.lib ole32.lib oleaut32.lib uuid.lib odbc32.lib odbccp32.lib kernel32.lib user32.lib gdi32.lib winspool.lib comdlg32.lib advapi32.lib shell32.lib ole32.lib oleaut32.lib uuid.lib odbc32.lib odbccp32.lib /MANIFEST /ManifestFile:"Debug\SDL GL Triangle.exe.intermediate.manifest" /MANIFESTUAC:"level='asInvoker' uiAccess='false'" /DEBUG /PDB:"C:\Users\Shields\Desktop\Moving Cameras\Debug\SDL GL Triangle.pdb" /SUBSYSTEM:WINDOWS /TLBID:1 /DYNAMICBASE /NXCOMPAT /IMPLIB:"C:\Users\Shields\Desktop\Moving Cameras\Debug\SDL GL Triangle.lib" /MACHINE:X86 "Debug\SDL GL Triangle.exe.embed.manifest.res"
Debug\main.obj
Debug\rt3d.obj
^C:\USERS\SHIELDS\DESKTOP\CALUM'S STUFF\UNI\LAB EXERCISES\RT3D\MOVING CAMERAS\SDL GL TRIANGLE\DEBUG\CAMERA.OBJ|C:\USERS\SHIELDS\DESKTOP\CALUM'S STUFF\UNI\LAB EXERCISES\RT3D\MOVING CAMERAS\SDL GL TRIANGLE\DEBUG\MAIN.OBJ|C:\USERS\SHIELDS\DESKTOP\CALUM'S STUFF\UNI\LAB EXERCISES\RT3D\MOVING CAMERAS\SDL GL TRIANGLE\DEBUG\RT3D.OBJ|C:\USERS\SHIELDS\DESKTOP\CALUM'S STUFF\UNI\LAB EXERCISES\RT3D\MOVING CAMERAS\SDL GL TRIANGLE\DEBUG\SDL GL TRIANGLE.EXE.EMBED.MANIFEST.RES
/ERRORREPORT:PROMPT /OUT:"C:\Users\Shields\Desktop\CALUM'S STUFF\Uni\Lab Exercises\RT3D\Moving Cameras\Debug\SDL GL Triangle.exe" /INCREMENTAL /NOLOGO opengl32.lib glew32.lib SDL.lib SDLmain.lib kernel32.lib user32.lib gdi32.lib winspool.lib comdlg32.lib advapi32.lib shell32.lib ole32.lib oleaut32.lib uuid.lib odbc32.lib odbccp32.lib kernel32.lib user32.lib gdi32.lib winspool.lib comdlg32.lib advapi32.lib shell32.lib ole32.lib oleaut32.lib uuid.lib odbc32.lib odbccp32.lib /MANIFEST /ManifestFile:"Debug\SDL GL Triangle.exe.intermediate.manifest" /MANIFESTUAC:"level='asInvoker' uiAccess='false'" /DEBUG /PDB:"C:\Users\Shields\Desktop\CALUM'S STUFF\Uni\Lab Exercises\RT3D\Moving Cameras\Debug\SDL GL Triangle.pdb" /SUBSYSTEM:WINDOWS /TLBID:1 /DYNAMICBASE /NXCOMPAT /IMPLIB:"C:\Users\Shields\Desktop\CALUM'S STUFF\Uni\Lab Exercises\RT3D\Moving Cameras\Debug\SDL GL Triangle.lib" /MACHINE:X86 "Debug\SDL GL Triangle.exe.embed.manifest.res"
Debug\Camera.obj
Debug\main.obj
Debug\rt3d.obj
^C:\USERS\SHIELDS\DESKTOP\CALUM'S STUFF\UNI\LAB EXERCISES\RT3D\RT3D ASSIGNMENT\SDL GL TRIANGLE\DEBUG\CAMERA.OBJ|C:\USERS\SHIELDS\DESKTOP\CALUM'S STUFF\UNI\LAB EXERCISES\RT3D\RT3D ASSIGNMENT\SDL GL TRIANGLE\DEBUG\LOADTEXTURE.OBJ|C:\USERS\SHIELDS\DESKTOP\CALUM'S STUFF\UNI\LAB EXERCISES\RT3D\RT3D ASSIGNMENT\SDL GL TRIANGLE\DEBUG\MAIN.OBJ|C:\USERS\SHIELDS\DESKTOP\CALUM'S STUFF\UNI\LAB EXERCISES\RT3D\RT3D ASSIGNMENT\SDL GL TRIANGLE\DEBUG\MD2MODEL.OBJ|C:\USERS\SHIELDS\DESKTOP\CALUM'S STUFF\UNI\LAB EXERCISES\RT3D\RT3D ASSIGNMENT\SDL GL TRIANGLE\DEBUG\RT3D ASSIGNMENT.EXE.EMBED.MANIFEST.RES|C:\USERS\SHIELDS\DESKTOP\CALUM'S STUFF\UNI\LAB EXERCISES\RT3D\RT3D ASSIGNMENT\SDL GL TRIANGLE\DEBUG\RT3D.OBJ|C:\USERS\SHIELDS\DESKTOP\CALUM'S STUFF\UNI\LAB EXERCISES\RT3D\RT3D ASSIGNMENT\SDL GL TRIANGLE\DEBUG\RT3DOBJLOADER.OBJ
/ERRORREPORT:PROMPT /OUT:"C:\Users\Shields\Desktop\CALUM'S STUFF\Uni\Lab Exercises\RT3D\RT3D Assignment\Debug\RT3D Assignment.exe" /INCREMENTAL /NOLOGO opengl32.lib glew32.lib SDL.lib SDLmain.lib kernel32.lib user32.lib gdi32.lib winspool.lib comdlg32.lib advapi32.lib shell32.lib ole32.lib oleaut32.lib uuid.lib odbc32.lib odbccp32.lib kernel32.lib user32.lib gdi32.lib winspool.lib comdlg32.lib advapi32.lib shell32.lib ole32.lib oleaut32.lib uuid.lib odbc32.lib odbccp32.lib /MANIFEST /ManifestFile:"Debug\RT3D Assignment.exe.intermediate.manifest" /MANIFESTUAC:"level='asInvoker' uiAccess='false'" /DEBUG /PDB:"C:\Users\Shields\Desktop\CALUM'S STUFF\Uni\Lab Exercises\RT3D\RT3D Assignment\Debug\RT3D Assignment.pdb" /SUBSYSTEM:WINDOWS /TLBID:1 /DYNAMICBASE /NXCOMPAT /IMPLIB:"C:\Users\Shields\Desktop\CALUM'S STUFF\Uni\Lab Exercises\RT3D\RT3D Assignment\Debug\RT3D Assignment.lib" /MACHINE:X86 "Debug\RT3D Assignment.exe.embed.manifest.res"
Debug\Camera.obj
Debug\LoadTexture.obj
Debug\md2model.obj
Debug\rt3dObjLoader.obj
Debug\main.obj
Debug\rt3d.obj
^E:\RT3D\RT3D ASSIGNMENT\SDL GL TRIANGLE\DEBUG\CAMERA.OBJ|E:\RT3D\RT3D ASSIGNMENT\SDL GL TRIANGLE\DEBUG\LOADOBJECT.OBJ|E:\RT3D\RT3D ASSIGNMENT\SDL GL TRIANGLE\DEBUG\LOADTEXTURE.OBJ|E:\RT3D\RT3D ASSIGNMENT\SDL GL TRIANGLE\DEBUG\MAIN.OBJ|E:\RT3D\RT3D ASSIGNMENT\SDL GL TRIANGLE\DEBUG\MD2MODEL.OBJ|E:\RT3D\RT3D ASSIGNMENT\SDL GL TRIANGLE\DEBUG\RT3D ASSIGNMENT.EXE.EMBED.MANIFEST.RES|E:\RT3D\RT3D ASSIGNMENT\SDL GL TRIANGLE\DEBUG\RT3D.OBJ|E:\RT3D\RT3D ASSIGNMENT\SDL GL TRIANGLE\DEBUG\RT3DOBJLOADER.OBJ
/ERRORREPORT:PROMPT /OUT:"E:\RT3D\RT3D Assignment\Debug\RT3D Assignment.exe" /INCREMENTAL /NOLOGO opengl32.lib glew32.lib SDL.lib SDLmain.lib kernel32.lib user32.lib gdi32.lib winspool.lib comdlg32.lib advapi32.lib shell32.lib ole32.lib oleaut32.lib uuid.lib odbc32.lib odbccp32.lib kernel32.lib user32.lib gdi32.lib winspool.lib comdlg32.lib advapi32.lib shell32.lib ole32.lib oleaut32.lib uuid.lib odbc32.lib odbccp32.lib /MANIFEST /ManifestFile:"Debug\RT3D Assignment.exe.intermediate.manifest" /MANIFESTUAC:"level='asInvoker' uiAccess='false'" /DEBUG /PDB:"E:\RT3D\RT3D Assignment\Debug\RT3D Assignment.pdb" /SUBSYSTEM:WINDOWS /TLBID:1 /DYNAMICBASE /NXCOMPAT /IMPLIB:"E:\RT3D\RT3D Assignment\Debug\RT3D Assignment.lib" /MACHINE:X86 "Debug\RT3D Assignment.exe.embed.manifest.res"
Debug\Camera.obj
Debug\LoadObject.obj
Debug\LoadTexture.obj
Debug\main.obj
Debug\md2model.obj
Debug\rt3d.obj
Debug\rt3dObjLoader.obj
^E:\RT3D\RT3D_ASSIGNMENT\SDL GL TRIANGLE\DEBUG\CAMERA.OBJ|E:\RT3D\RT3D_ASSIGNMENT\SDL GL TRIANGLE\DEBUG\DRAWOBJECT.OBJ|E:\RT3D\RT3D_ASSIGNMENT\SDL GL TRIANGLE\DEBUG\LABEL.OBJ|E:\RT3D\RT3D_ASSIGNMENT\SDL GL TRIANGLE\DEBUG\LIGHT.OBJ|E:\RT3D\RT3D_ASSIGNMENT\SDL GL TRIANGLE\DEBUG\LOADOBJECT.OBJ|E:\RT3D\RT3D_ASSIGNMENT\SDL GL TRIANGLE\DEBUG\LOADTEXTURE.OBJ|E:\RT3D\RT3D_ASSIGNMENT\SDL GL TRIANGLE\DEBUG\MAIN.OBJ|E:\RT3D\RT3D_ASSIGNMENT\SDL GL TRIANGLE\DEBUG\MD2MODEL.OBJ|E:\RT3D\RT3D_ASSIGNMENT\SDL GL TRIANGLE\DEBUG\RT3D ASSIGNMENT.EXE.EMBED.MANIFEST.RES|E:\RT3D\RT3D_ASSIGNMENT\SDL GL TRIANGLE\DEBUG\RT3D.OBJ|E:\RT3D\RT3D_ASSIGNMENT\SDL GL TRIANGLE\DEBUG\RT3DOBJLOADER.OBJ
/ERRORREPORT:PROMPT /OUT:"E:\RT3D\RT3D_Assignment\Debug\RT3D Assignment.exe" /INCREMENTAL /NOLOGO bass.lib opengl32.lib glew32.lib SDL.lib SDLmain.lib SDL_ttf.lib kernel32.lib user32.lib gdi32.lib winspool.lib comdlg32.lib advapi32.lib shell32.lib ole32.lib oleaut32.lib uuid.lib odbc32.lib odbccp32.lib kernel32.lib user32.lib gdi32.lib winspool.lib comdlg32.lib advapi32.lib shell32.lib ole32.lib oleaut32.lib uuid.lib odbc32.lib odbccp32.lib /MANIFEST /ManifestFile:"Debug\RT3D Assignment.exe.intermediate.manifest" /MANIFESTUAC:"level='asInvoker' uiAccess='false'" /DEBUG /PDB:"E:\RT3D\RT3D_Assignment\Debug\RT3D Assignment.pdb" /SUBSYSTEM:WINDOWS /TLBID:1 /DYNAMICBASE /NXCOMPAT /IMPLIB:"E:\RT3D\RT3D_Assignment\Debug\RT3D Assignment.lib" /MACHINE:X86 "Debug\RT3D Assignment.exe.embed.manifest.res"
Debug\drawObject.obj
Debug\Camera.obj
Debug\label.obj
Debug\Light.obj
Debug\LoadObject.obj
Debug\LoadTexture.obj
Debug\main.obj
Debug\md2model.obj
Debug\rt3d.obj
Debug\rt3dObjLoader.obj
^H:\RT3D\RT3D_ASSIGNMENT\SDL GL TRIANGLE\DEBUG\CAMERA.OBJ|H:\RT3D\RT3D_ASSIGNMENT\SDL GL TRIANGLE\DEBUG\DRAWOBJECT.OBJ|H:\RT3D\RT3D_ASSIGNMENT\SDL GL TRIANGLE\DEBUG\LABEL.OBJ|H:\RT3D\RT3D_ASSIGNMENT\SDL GL TRIANGLE\DEBUG\LIGHT.OBJ|H:\RT3D\RT3D_ASSIGNMENT\SDL GL TRIANGLE\DEBUG\LOADOBJECT.OBJ|H:\RT3D\RT3D_ASSIGNMENT\SDL GL TRIANGLE\DEBUG\LOADTEXTURE.OBJ|H:\RT3D\RT3D_ASSIGNMENT\SDL GL TRIANGLE\DEBUG\MAIN.OBJ|H:\RT3D\RT3D_ASSIGNMENT\SDL GL TRIANGLE\DEBUG\MD2MODEL.OBJ|H:\RT3D\RT3D_ASSIGNMENT\SDL GL TRIANGLE\DEBUG\RT3D ASSIGNMENT.EXE.EMBED.MANIFEST.RES|H:\RT3D\RT3D_ASSIGNMENT\SDL GL TRIANGLE\DEBUG\RT3D.OBJ|H:\RT3D\RT3D_ASSIGNMENT\SDL GL TRIANGLE\DEBUG\RT3DOBJLOADER.OBJ
/ERRORREPORT:PROMPT /OUT:"H:\RT3D\RT3D_Assignment\Debug\RT3D Assignment.exe" /INCREMENTAL /NOLOGO bass.lib opengl32.lib glew32.lib SDL.lib SDLmain.lib SDL_ttf.lib kernel32.lib user32.lib gdi32.lib winspool.lib comdlg32.lib advapi32.lib shell32.lib ole32.lib oleaut32.lib uuid.lib odbc32.lib odbccp32.lib kernel32.lib user32.lib gdi32.lib winspool.lib comdlg32.lib advapi32.lib shell32.lib ole32.lib oleaut32.lib uuid.lib odbc32.lib odbccp32.lib /MANIFEST /ManifestFile:"Debug\RT3D Assignment.exe.intermediate.manifest" /MANIFESTUAC:"level='asInvoker' uiAccess='false'" /DEBUG /PDB:"H:\RT3D\RT3D_Assignment\Debug\RT3D Assignment.pdb" /SUBSYSTEM:WINDOWS /TLBID:1 /DYNAMICBASE /NXCOMPAT /IMPLIB:"H:\RT3D\RT3D_Assignment\Debug\RT3D Assignment.lib" /MACHINE:X86 "Debug\RT3D Assignment.exe.embed.manifest.res"
Debug\drawObject.obj
Debug\Camera.obj
Debug\label.obj
Debug\Light.obj
Debug\LoadObject.obj
Debug\LoadTexture.obj
Debug\main.obj
Debug\md2model.obj
Debug\rt3d.obj
Debug\rt3dObjLoader.obj
^C:\USERS\SHIELDS\REPOS\RT3D\RT3D_ASSIGNMENT\SDL GL TRIANGLE\DEBUG\CAMERA.OBJ|C:\USERS\SHIELDS\REPOS\RT3D\RT3D_ASSIGNMENT\SDL GL TRIANGLE\DEBUG\DRAWOBJECT.OBJ|C:\USERS\SHIELDS\REPOS\RT3D\RT3D_ASSIGNMENT\SDL GL TRIANGLE\DEBUG\LABEL.OBJ|C:\USERS\SHIELDS\REPOS\RT3D\RT3D_ASSIGNMENT\SDL GL TRIANGLE\DEBUG\LIGHT.OBJ|C:\USERS\SHIELDS\REPOS\RT3D\RT3D_ASSIGNMENT\SDL GL TRIANGLE\DEBUG\LOADOBJECT.OBJ|C:\USERS\SHIELDS\REPOS\RT3D\RT3D_ASSIGNMENT\SDL GL TRIANGLE\DEBUG\LOADTEXTURE.OBJ|C:\USERS\SHIELDS\REPOS\RT3D\RT3D_ASSIGNMENT\SDL GL TRIANGLE\DEBUG\MAIN.OBJ|C:\USERS\SHIELDS\REPOS\RT3D\RT3D_ASSIGNMENT\SDL GL TRIANGLE\DEBUG\MD2MODEL.OBJ|C:\USERS\SHIELDS\REPOS\RT3D\RT3D_ASSIGNMENT\SDL GL TRIANGLE\DEBUG\RT3D ASSIGNMENT.EXE.EMBED.MANIFEST.RES|C:\USERS\SHIELDS\REPOS\RT3D\RT3D_ASSIGNMENT\SDL GL TRIANGLE\DEBUG\RT3D.OBJ|C:\USERS\SHIELDS\REPOS\RT3D\RT3D_ASSIGNMENT\SDL GL TRIANGLE\DEBUG\RT3DOBJLOADER.OBJ
/ERRORREPORT:PROMPT /OUT:"C:\Users\Shields\repos\rt3d\RT3D_Assignment\Debug\RT3D Assignment.exe" /INCREMENTAL /NOLOGO bass.lib opengl32.lib glew32.lib SDL.lib SDLmain.lib SDL_ttf.lib kernel32.lib user32.lib gdi32.lib winspool.lib comdlg32.lib advapi32.lib shell32.lib ole32.lib oleaut32.lib uuid.lib odbc32.lib odbccp32.lib kernel32.lib user32.lib gdi32.lib winspool.lib comdlg32.lib advapi32.lib shell32.lib ole32.lib oleaut32.lib uuid.lib odbc32.lib odbccp32.lib /MANIFEST /ManifestFile:"Debug\RT3D Assignment.exe.intermediate.manifest" /MANIFESTUAC:"level='asInvoker' uiAccess='false'" /DEBUG /PDB:"C:\Users\Shields\repos\rt3d\RT3D_Assignment\Debug\RT3D Assignment.pdb" /SUBSYSTEM:WINDOWS /TLBID:1 /DYNAMICBASE /NXCOMPAT /IMPLIB:"C:\Users\Shields\repos\rt3d\RT3D_Assignment\Debug\RT3D Assignment.lib" /MACHINE:X86 "Debug\RT3D Assignment.exe.embed.manifest.res"
Debug\drawObject.obj
Debug\Camera.obj
Debug\label.obj
Debug\Light.obj
Debug\LoadObject.obj
Debug\LoadTexture.obj
Debug\main.obj
Debug\md2model.obj
Debug\rt3d.obj
Debug\rt3dObjLoader.obj
