^C:\USERS\TEMP\DESKTOP\DLIVINGSTONE-RT3D-LAB-2-E9A28B654B10\SDL GL TRIANGLE\DEBUG\SDL GL TRIANGLE.EXE.INTERMEDIATE.MANIFEST
C:\USERS\TEMP\DESKTOP\DLIVINGSTONE-RT3D-LAB-2-E9A28B654B10\SDL GL TRIANGLE\DEBUG\SDL GL TRIANGLE.EXE.EMBED.MANIFEST
^E:\SHIELDS' SHITE\SDL GL TRIANGLE\DEBUG\SDL GL TRIANGLE.EXE.INTERMEDIATE.MANIFEST
E:\SHIELDS' SHITE\SDL GL TRIANGLE\DEBUG\SDL GL TRIANGLE.EXE.EMBED.MANIFEST
^H:\SHIELDS' SHITE\SDL GL TRIANGLE\DEBUG\SDL GL TRIANGLE.EXE.INTERMEDIATE.MANIFEST
H:\SHIELDS' SHITE\SDL GL TRIANGLE\DEBUG\SDL GL TRIANGLE.EXE.EMBED.MANIFEST
^C:\USERS\SHIELDS\DESKTOP\CALUM'S STUFF\UNI\LAB EXERCISES\RT3D\RT3D ASSIGNMENT\SDL GL TRIANGLE\DEBUG\RT3D ASSIGNMENT.EXE.INTERMEDIATE.MANIFEST
C:\USERS\SHIELDS\DESKTOP\CALUM'S STUFF\UNI\LAB EXERCISES\RT3D\RT3D ASSIGNMENT\SDL GL TRIANGLE\DEBUG\RT3D ASSIGNMENT.EXE.EMBED.MANIFEST
^H:\RT3D\RT3D_ASSIGNMENT\SDL GL TRIANGLE\DEBUG\RT3D ASSIGNMENT.EXE.INTERMEDIATE.MANIFEST
H:\RT3D\RT3D_ASSIGNMENT\SDL GL TRIANGLE\DEBUG\RT3D ASSIGNMENT.EXE.EMBED.MANIFEST
^E:\RT3D\RT3D_ASSIGNMENT\SDL GL TRIANGLE\DEBUG\RT3D ASSIGNMENT.EXE.INTERMEDIATE.MANIFEST
E:\RT3D\RT3D_ASSIGNMENT\SDL GL TRIANGLE\DEBUG\RT3D ASSIGNMENT.EXE.EMBED.MANIFEST
