^C:\USERS\TEMP\DESKTOP\DLIVINGSTONE-RT3D-LAB-2-E9A28B654B10\SDL GL TRIANGLE\DEBUG\SDL GL TRIANGLE_MANIFEST.RC
C:\USERS\TEMP\DESKTOP\DLIVINGSTONE-RT3D-LAB-2-E9A28B654B10\SDL GL TRIANGLE\DEBUG\SDL GL TRIANGLE.EXE.EMBED.MANIFEST.RES
^H:\SHIELDS' SHITE\SDL GL TRIANGLE\DEBUG\SDL GL TRIANGLE_MANIFEST.RC
H:\SHIELDS' SHITE\SDL GL TRIANGLE\DEBUG\SDL GL TRIANGLE.EXE.EMBED.MANIFEST.RES
^E:\SHIELDS' SHITE\SDL GL TRIANGLE\DEBUG\SDL GL TRIANGLE_MANIFEST.RC
E:\SHIELDS' SHITE\SDL GL TRIANGLE\DEBUG\SDL GL TRIANGLE.EXE.EMBED.MANIFEST.RES
^C:\USERS\SHIELDS\DESKTOP\CALUM'S STUFF\UNI\SHIELDS' SHITE\SDL GL TRIANGLE\DEBUG\SDL GL TRIANGLE_MANIFEST.RC
C:\USERS\SHIELDS\DESKTOP\CALUM'S STUFF\UNI\SHIELDS' SHITE\SDL GL TRIANGLE\DEBUG\SDL GL TRIANGLE.EXE.EMBED.MANIFEST.RES
^C:\USERS\SHIELDS\DESKTOP\SOLAR SYSTEM\SDL GL TRIANGLE\DEBUG\SDL GL TRIANGLE_MANIFEST.RC
C:\USERS\SHIELDS\DESKTOP\SOLAR SYSTEM\SDL GL TRIANGLE\DEBUG\SDL GL TRIANGLE.EXE.EMBED.MANIFEST.RES
^C:\USERS\SHIELDS\DESKTOP\MOVING CAMERAS\SDL GL TRIANGLE\DEBUG\SDL GL TRIANGLE_MANIFEST.RC
C:\USERS\SHIELDS\DESKTOP\MOVING CAMERAS\SDL GL TRIANGLE\DEBUG\SDL GL TRIANGLE.EXE.EMBED.MANIFEST.RES
^C:\USERS\SHIELDS\DESKTOP\CALUM'S STUFF\UNI\LAB EXERCISES\RT3D\MOVING CAMERAS\SDL GL TRIANGLE\DEBUG\SDL GL TRIANGLE_MANIFEST.RC
C:\USERS\SHIELDS\DESKTOP\CALUM'S STUFF\UNI\LAB EXERCISES\RT3D\MOVING CAMERAS\SDL GL TRIANGLE\DEBUG\SDL GL TRIANGLE.EXE.EMBED.MANIFEST.RES
^C:\USERS\SHIELDS\DESKTOP\CALUM'S STUFF\UNI\LAB EXERCISES\RT3D\RT3D ASSIGNMENT\SDL GL TRIANGLE\DEBUG\RT3D ASSIGNMENT_MANIFEST.RC
C:\USERS\SHIELDS\DESKTOP\CALUM'S STUFF\UNI\LAB EXERCISES\RT3D\RT3D ASSIGNMENT\SDL GL TRIANGLE\DEBUG\RT3D ASSIGNMENT.EXE.EMBED.MANIFEST.RES
^E:\RT3D\RT3D ASSIGNMENT\SDL GL TRIANGLE\DEBUG\RT3D ASSIGNMENT_MANIFEST.RC
E:\RT3D\RT3D ASSIGNMENT\SDL GL TRIANGLE\DEBUG\RT3D ASSIGNMENT.EXE.EMBED.MANIFEST.RES
^E:\RT3D\RT3D_ASSIGNMENT\SDL GL TRIANGLE\DEBUG\RT3D ASSIGNMENT_MANIFEST.RC
E:\RT3D\RT3D_ASSIGNMENT\SDL GL TRIANGLE\DEBUG\RT3D ASSIGNMENT.EXE.EMBED.MANIFEST.RES
^H:\RT3D\RT3D_ASSIGNMENT\SDL GL TRIANGLE\DEBUG\RT3D ASSIGNMENT_MANIFEST.RC
H:\RT3D\RT3D_ASSIGNMENT\SDL GL TRIANGLE\DEBUG\RT3D ASSIGNMENT.EXE.EMBED.MANIFEST.RES
^C:\USERS\SHIELDS\REPOS\RT3D\RT3D_ASSIGNMENT\SDL GL TRIANGLE\DEBUG\RT3D ASSIGNMENT_MANIFEST.RC
C:\USERS\SHIELDS\REPOS\RT3D\RT3D_ASSIGNMENT\SDL GL TRIANGLE\DEBUG\RT3D ASSIGNMENT.EXE.EMBED.MANIFEST.RES
