# cube.obj

#
 

g cube
 

v  -0.5  -0.5  -0.5
v  -0.5  -0.5  0.5

v  -0.5  0.5  -0.5
v  -0.5  0.5  0.5

v  0.5  -0.5  -0.5

v  0.5  -0.5  0.5

v  0.5  0.5  -0.5
v  0.5  0.5  0.5


vn  0.0  0.0  1.0

vn  0.0  0.0 -1.0

vn  0.0  1.0  0.0

vn  0.0 -1.0  0.0

vn  1.0  0.0  0.0

vn -1.0  0.0  0.0
 
vt 0.0 0.0
vt 0.0 1.0
vt 1.0 0.0


vt 1.0 1.0
f  1/4/2  7/1/2  5/2/2

f  1/4/2  3/3/2  7/1/2 

f  1/2/6  4/3/6  3/1/6 

f  1/2/6  2/4/6  4/3/6 

f  3/1/3  8/4/3  7/3/3 

f  3/1/3  4/2/3  8/4/3 

f  5/4/5  7/3/5  8/1/5 

f  5/4/5  8/1/5  6/2/5 

f  1/1/4  5/3/4  6/4/4 

f  1/1/4  6/4/4  2/2/4 

f  2/2/1  6/4/1  8/3/1 

f  2/2/1  8/3/1  4/1/1 
