# cube.obj

#
 

g cube
 

v  -2.0 -2.0 0.0
v  -2.0 2.0 0.0
v  2.0 2.0 0.0
v  2.0 -2.0 0.0
vn  0.0  1.0  0.0

vt  0.0 0.0
vt  0.0 1.0
vt  1.0 1.0
vt  1.0 0.0
f  1/3/1 2/4/1 3/1/1
f  1/3/1 4/2/1 3/1/1